25
3 5 3 4
2 3 1
4 6 3 1 5
1 7
1 7
2 6 5
3 2 9 3
3 2 3 4
4 3 3 3 2
2 3 4
2 3 4
2 3 5
3 3 6 1
4 3 4 1 2
4 2 4 1 3
4 2 3 1 4
4 2 2 2 1
5 3 1 5 2 2
2 13 5
5 3 2 5 3 3
4 5 3 4 3
2 2 3
4 2 4 3 4
3 6 6 7
3 3 4 4
2 1 1
2 2 2
4 1 1 2 1
5 1 2 1 2 2
6 1 1 1 1 2 2
6 1 1 1 2 3 2
6 1 1 1 1 3 2
5 1 1 1 11 1
3 1 14 1
4 3 8 2 2
4 4 2 7 2
5 5 1 5 3 2
6 2 2 1 5 3 2
6 1 2 1 6 3 2
6 1 2 1 6 2 2
4 3 7 3 1
3 1 15 2
6 1 1 1 1 4 1
6 1 1 1 2 3 2
7 1 1 1 1 1 2 2
6 1 2 2 2 2 2
5 1 1 3 3 3
4 1 5 3 2
2 4 1
3 2 1 1